Library\Bee\artifacts\movedfrom\UnityEditor.Graphs.dll_4630947308054341446.movedfrom
Library\Bee\artifacts\movedfrom\UnityEditor.CoreModule.dll_7988676530989494548.movedfrom
Library\Bee\artifacts\movedfrom\UnityEditor.DeviceSimulatorModule.dll_8640805735569503469.movedfrom
Library\Bee\artifacts\movedfrom\UnityEditor.dll_14598595473440074817.movedfrom
Library\Bee\artifacts\movedfrom\UnityEditor.GraphViewModule.dll_14391237492754667122.movedfrom
Library\Bee\artifacts\movedfrom\UnityEditor.PackageManagerUIModule.dll_2823663989785808240.movedfrom
Library\Bee\artifacts\movedfrom\UnityEditor.QuickSearchModule.dll_3736634843749408852.movedfrom
Library\Bee\artifacts\movedfrom\UnityEditor.SceneTemplateModule.dll_2139348221595562325.movedfrom
Library\Bee\artifacts\movedfrom\UnityEditor.UIBuilderModule.dll_2035802252759093158.movedfrom
Library\Bee\artifacts\movedfrom\UnityEditor.UIElementsModule.dll_3854809306353577936.movedfrom
Library\Bee\artifacts\movedfrom\UnityEditor.UIElementsSamplesModule.dll_1035680620284993181.movedfrom
Library\Bee\artifacts\movedfrom\UnityEditor.UIServiceModule.dll_6139163579764219840.movedfrom
Library\Bee\artifacts\movedfrom\UnityEditor.UnityConnectModule.dll_15880758095025678794.movedfrom
Library\Bee\artifacts\movedfrom\UnityEngine.AccessibilityModule.dll_5788789590941194482.movedfrom
Library\Bee\artifacts\movedfrom\UnityEngine.AIModule.dll_1041370760855774440.movedfrom
Library\Bee\artifacts\movedfrom\UnityEngine.AndroidJNIModule.dll_12954588347618205350.movedfrom
Library\Bee\artifacts\movedfrom\UnityEngine.AnimationModule.dll_10825930477664840472.movedfrom
Library\Bee\artifacts\movedfrom\UnityEngine.ARModule.dll_14404330423455237041.movedfrom
Library\Bee\artifacts\movedfrom\UnityEngine.AssetBundleModule.dll_8630133326183568710.movedfrom
Library\Bee\artifacts\movedfrom\UnityEngine.AudioModule.dll_1699594833722508810.movedfrom
Library\Bee\artifacts\movedfrom\UnityEngine.ClothModule.dll_9114873852658935022.movedfrom
Library\Bee\artifacts\movedfrom\UnityEngine.ClusterInputModule.dll_6629367296533068944.movedfrom
Library\Bee\artifacts\movedfrom\UnityEngine.ClusterRendererModule.dll_9049721194214998641.movedfrom
Library\Bee\artifacts\movedfrom\UnityEngine.CoreModule.dll_10519931873531419711.movedfrom
Library\Bee\artifacts\movedfrom\UnityEngine.CrashReportingModule.dll_15013149529528044855.movedfrom
Library\Bee\artifacts\movedfrom\UnityEngine.DirectorModule.dll_8649527380634255900.movedfrom
Library\Bee\artifacts\movedfrom\UnityEngine.dll_18247714966628530470.movedfrom
Library\Bee\artifacts\movedfrom\UnityEngine.DSPGraphModule.dll_9032721929455866685.movedfrom
Library\Bee\artifacts\movedfrom\UnityEngine.GameCenterModule.dll_16002762349273649047.movedfrom
Library\Bee\artifacts\movedfrom\UnityEngine.GIModule.dll_12011093876018793730.movedfrom
Library\Bee\artifacts\movedfrom\UnityEngine.GridModule.dll_8029753463996609078.movedfrom
Library\Bee\artifacts\movedfrom\UnityEngine.HotReloadModule.dll_1695091165532833434.movedfrom
Library\Bee\artifacts\movedfrom\UnityEngine.ImageConversionModule.dll_16827998160200071781.movedfrom
Library\Bee\artifacts\movedfrom\UnityEngine.IMGUIModule.dll_5761735486394604011.movedfrom
Library\Bee\artifacts\movedfrom\UnityEngine.InputLegacyModule.dll_651191979578772279.movedfrom
Library\Bee\artifacts\movedfrom\UnityEngine.InputModule.dll_9082621558577867438.movedfrom
Library\Bee\artifacts\movedfrom\UnityEngine.JSONSerializeModule.dll_12712943433824778620.movedfrom
Library\Bee\artifacts\movedfrom\UnityEngine.LocalizationModule.dll_11118552681192222601.movedfrom
Library\Bee\artifacts\movedfrom\UnityEngine.ParticleSystemModule.dll_2552332903160289477.movedfrom
Library\Bee\artifacts\movedfrom\UnityEngine.PerformanceReportingModule.dll_16644444255436926974.movedfrom
Library\Bee\artifacts\movedfrom\UnityEngine.Physics2DModule.dll_16349014812476744365.movedfrom
Library\Bee\artifacts\movedfrom\UnityEngine.PhysicsModule.dll_8301982966030120475.movedfrom
Library\Bee\artifacts\movedfrom\UnityEngine.ProfilerModule.dll_12272173237564197161.movedfrom
Library\Bee\artifacts\movedfrom\UnityEngine.RuntimeInitializeOnLoadManagerInitializerModule.dll_16675697677996977526.movedfrom
Library\Bee\artifacts\movedfrom\UnityEngine.ScreenCaptureModule.dll_14579594791478027742.movedfrom
Library\Bee\artifacts\movedfrom\UnityEngine.SharedInternalsModule.dll_7897710660649547189.movedfrom
Library\Bee\artifacts\movedfrom\UnityEngine.SpriteMaskModule.dll_14357948548738393361.movedfrom
Library\Bee\artifacts\movedfrom\UnityEngine.SpriteShapeModule.dll_10458926117490314576.movedfrom
Library\Bee\artifacts\movedfrom\UnityEngine.StreamingModule.dll_5391472556522955350.movedfrom
Library\Bee\artifacts\movedfrom\UnityEngine.SubstanceModule.dll_2845553697203970148.movedfrom
Library\Bee\artifacts\movedfrom\UnityEngine.SubsystemsModule.dll_3598117184278826276.movedfrom
Library\Bee\artifacts\movedfrom\UnityEngine.TerrainModule.dll_10195319375348629257.movedfrom
Library\Bee\artifacts\movedfrom\UnityEngine.TerrainPhysicsModule.dll_2586858474934375250.movedfrom
Library\Bee\artifacts\movedfrom\UnityEngine.TextCoreModule.dll_1208124950503141932.movedfrom
Library\Bee\artifacts\movedfrom\UnityEngine.TextRenderingModule.dll_17551814460914951635.movedfrom
Library\Bee\artifacts\movedfrom\UnityEngine.TilemapModule.dll_3204720657909473298.movedfrom
Library\Bee\artifacts\movedfrom\UnityEngine.TLSModule.dll_2433423977519286319.movedfrom
Library\Bee\artifacts\movedfrom\UnityEngine.UIElementsModule.dll_3903906108344322331.movedfrom
Library\Bee\artifacts\movedfrom\UnityEngine.UIElementsNativeModule.dll_8190182974721310098.movedfrom
Library\Bee\artifacts\movedfrom\UnityEngine.UIModule.dll_713626330646735508.movedfrom
Library\Bee\artifacts\movedfrom\UnityEngine.UmbraModule.dll_10550483222859690365.movedfrom
Library\Bee\artifacts\movedfrom\UnityEngine.UNETModule.dll_2640400442839093688.movedfrom
Library\Bee\artifacts\movedfrom\UnityEngine.UnityAnalyticsModule.dll_4830996851112045249.movedfrom
Library\Bee\artifacts\movedfrom\UnityEngine.UnityConnectModule.dll_14538549130960185973.movedfrom
Library\Bee\artifacts\movedfrom\UnityEngine.UnityCurlModule.dll_14508926306652888325.movedfrom
Library\Bee\artifacts\movedfrom\UnityEngine.UnityTestProtocolModule.dll_14565256903355741171.movedfrom
Library\Bee\artifacts\movedfrom\UnityEngine.UnityWebRequestAssetBundleModule.dll_3226050161369495122.movedfrom
Library\Bee\artifacts\movedfrom\UnityEngine.UnityWebRequestAudioModule.dll_6843577781574875798.movedfrom
Library\Bee\artifacts\movedfrom\UnityEngine.UnityWebRequestModule.dll_18097740207051478244.movedfrom
Library\Bee\artifacts\movedfrom\UnityEngine.UnityWebRequestTextureModule.dll_2697453256876105515.movedfrom
Library\Bee\artifacts\movedfrom\UnityEngine.UnityWebRequestWWWModule.dll_7462637437267652711.movedfrom
Library\Bee\artifacts\movedfrom\UnityEngine.VehiclesModule.dll_17279261542535270839.movedfrom
Library\Bee\artifacts\movedfrom\UnityEngine.VFXModule.dll_11719451061015146908.movedfrom
Library\Bee\artifacts\movedfrom\UnityEngine.VideoModule.dll_4368404681981993391.movedfrom
Library\Bee\artifacts\movedfrom\UnityEngine.VirtualTexturingModule.dll_10823861245000924701.movedfrom
Library\Bee\artifacts\movedfrom\UnityEngine.VRModule.dll_6681501142251925516.movedfrom
Library\Bee\artifacts\movedfrom\UnityEngine.WindModule.dll_598179911762238120.movedfrom
Library\Bee\artifacts\movedfrom\UnityEngine.XRModule.dll_10338075513972931946.movedfrom
Library\Bee\artifacts\movedfrom\UnityEditor.Android.Extensions.dll_5756508529007421116.movedfrom
Library\Bee\artifacts\movedfrom\UnityEditor.WindowsStandalone.Extensions.dll_16473947967068571084.movedfrom